146
Au	#E= -525.616785 bonds_mix= 0.000000 surface_Au= 1.000000
Au	3.633577833	-5.225005248	3.602593794
Au	7.841622960	1.872787273	4.018131000
Au	5.815860783	-2.603991166	0.187527637
Au	9.716205036	-0.342076533	-2.925009880
Au	9.628489957	1.191528536	-0.545604449
Au	12.866218221	1.567486619	3.834910032
Au	7.165570742	4.670082439	8.026480511
Au	7.973592664	-0.962658575	4.208840719
Au	15.367044594	5.253299131	5.661169679
Au	10.264426188	0.457618857	3.296299803
Au	12.244103230	6.751296332	9.024254202
Au	3.604227075	-2.736247781	-1.373697462
Au	13.650006780	4.788266659	0.228948827
Au	12.221724046	8.828614416	4.865960177
Au	9.769960541	-4.996393741	6.397392881
Au	13.666556509	7.272909254	1.543016962
Au	15.312900177	2.717093989	4.395851357
Au	6.318363719	4.970202226	-1.250482223
Au	9.717719361	5.794137870	8.569526969
Au	3.350988879	-2.501476861	3.465131032
Au	13.699642905	0.623745054	8.567991120
Au	12.736868860	7.022768412	-1.065942476
Au	10.420296817	-1.119067846	0.891992075
Au	9.480477337	0.691455798	6.021950327
Au	12.795509576	-3.749336716	2.770205480
Au	11.373333621	4.535285727	10.462594759
Au	7.282544319	1.083681121	-2.140973054
Au	3.474988552	0.033647061	-1.656328042
Au	12.021481651	-0.206129081	-1.268011226
Au	6.522155303	3.360721867	-3.547994593
Au	8.061842475	-1.663349046	11.480151139
Au	10.706631242	7.975481150	7.045907670
Au	5.786664005	-5.274690266	5.326469717
Au	4.738011627	0.698466858	7.669477530
Au	14.589674351	5.015960069	2.941782443
Au	7.417020543	-0.379783790	-4.416708641
Au	12.579691666	4.573903998	-2.390696306
Au	10.392156262	-3.026354620	10.786275492
Au	3.519168289	-3.787701611	5.988671373
Au	5.087103001	0.986326400	-3.723870960
Au	8.861675098	1.990645964	-4.243060301
Au	10.273030905	6.030206504	-1.802433981
Au	8.620332942	5.104026749	0.417497625
Au	7.977988824	5.717213152	-3.299979373
Au	5.741557099	-1.379170955	-2.468545174
Au	7.936333951	4.446291126	5.302235898
Au	4.642125881	5.565705489	3.303483866
Au	3.316246923	-0.965855597	5.823598775
Au	5.614606471	-1.062072273	2.562288369
Au	9.532242716	5.346101992	3.139868749
Au	5.504848298	0.470122587	4.944818872
Au	4.701398952	4.073060433	0.910068494
Au	5.401287344	3.298522854	4.744132019
Au	6.597046951	-3.282189149	9.757104684
Au	12.113872366	6.393809995	3.678288755
Au	4.821676944	2.523180633	-1.470352030
Au	8.146473160	-2.542570073	1.808143899
Au	8.134926268	-2.694798827	-3.041160385
Au	7.958960835	0.324239587	1.633571885
Au	5.571440176	5.791206949	5.986290241
Au	13.492771954	-1.874061275	7.287435014
Au	14.974707505	-2.293555153	1.893045964
Au	5.932949339	-5.374021262	0.405444113
Au	10.498119200	-5.162242440	3.683850414
Au	11.211695362	2.107824922	-2.705238570
Au	12.705663912	-0.968260504	2.569393056
Au	10.467879006	-2.605445839	-1.433563360
Au	12.063620843	3.867318297	2.385580577
Au	3.336337909	-1.213593352	0.889898671
Au	5.491981431	1.761550262	2.360182693
Au	3.131026059	4.625475409	5.418779522
Au	11.097629027	3.656879232	-0.320171152
Au	3.289593916	1.593686681	0.702016755
Au	12.976584276	4.112620766	5.105763057
Au	8.103532913	-1.241677890	-0.759675751
Au	5.655161263	-2.366211617	5.129541634
Au	10.536262115	-3.949158141	1.091319179
Au	8.133351998	-3.814457375	4.391488388
Au	10.434974204	-2.410019171	3.476352673
Au	7.134610454	-0.694927712	6.949523612
Au	11.275844592	-3.342502434	8.210621555
Au	9.694126998	7.876317055	4.397521600
Au	5.627170066	0.208044604	-0.023635717
Au	7.096997139	2.670837613	0.207124605
Au	7.334131608	-3.523676420	7.086768633
Au	6.264340525	6.458475499	1.139481140
Au	12.650441544	-1.603723714	9.980155641
Au	3.175162928	1.871510027	5.635415731
Au	14.488888343	0.391463245	5.847277151
Au	8.755406718	7.647814846	1.685775025
Au	5.830861228	-3.885941840	2.752868596
Au	14.463578680	2.477097577	1.671178829
Au	8.937239820	-4.650587647	9.060131290
Au	7.918474872	7.297055734	-1.003945866
Au	11.179785058	6.167470639	0.976562485
Au	6.993097587	4.217594408	2.580858447
Au	7.141968049	6.753588428	3.848996820
Au	7.483600460	-6.220785142	7.282782201
Au	13.444450436	2.262330203	-0.996801076
Au	8.772028303	3.524140689	-1.921177797
Au	9.455903396	2.772930771	1.853244190
Au	10.499524534	5.559976574	5.842932007
Au	9.668147270	-2.175038636	6.194628378
Au	3.161752359	3.144529459	3.085973329
Au	3.214482059	0.330845927	3.272709011
Au	12.808997602	0.925249888	11.142586062
Au	15.191982480	0.171268901	3.124225728
Au	10.407235169	8.385855948	-0.373243075
Au	8.245779228	-5.364014406	2.006685060
Au	8.180136882	-6.511714944	4.599140110
Au	6.378900450	-0.480390186	9.668971530
Au	4.873138437	-2.134857988	7.856082884
Au	5.934747624	-4.100713282	-2.067306971
Au	3.594156140	-4.005234589	1.102725752
Au	12.780813431	-2.477022801	0.222708746
Au	14.285879006	-2.113009508	4.563342848
Au	5.963993991	-6.588220636	2.907379969
Au	14.261028262	-0.053746410	0.441516471
Au	8.230081817	-4.077704713	-0.567593925
Au	11.327915293	8.641118577	2.239598278
Au	12.060884811	-3.580564656	5.488540132
Au	11.921521737	1.339081145	1.113322504
Au	8.667950282	0.941703181	8.755531337
Au	8.131284451	6.911926136	6.530525421
Au	14.575031499	5.390485554	8.331832987
Au	12.138247603	4.339202782	7.796141344
Au	14.553320216	7.466304092	4.173007055
Au	7.016404428	2.130370377	6.764018293
Au	10.345227360	-0.269327241	10.813125696
Au	12.089577855	1.786733811	6.552206575
Au	14.614731942	2.935003439	7.113819113
Au	7.990113385	1.121390140	11.369094970
Au	13.713499191	3.167503267	9.766198026
Au	6.311390404	2.323246558	9.426630238
Au	13.115591964	6.722052946	6.408228918
Au	10.396273249	3.000030346	4.565786661
Au	10.478551404	2.288658180	11.837326053
Au	10.307801736	4.354175026	-3.992374948
Au	4.665484533	3.508433033	7.428470565
Au	8.834574067	-1.876406968	8.892875328
Au	11.146440704	-0.505993415	8.017129152
Au	11.946946802	-0.749903052	5.295546988
Au	8.803135744	3.484965598	10.026425391
Au	11.226456486	2.038041123	9.245322762
Au	5.153064704	-4.858598815	7.977378871
Au	9.556050654	3.265930909	7.306382822
